{
    "menu_item_called": {
        "background": "#00FF00",
        "font": "#000000"
    },
    "queue_group": [
        {
            "background": "#81A32B",
            "font": "#FFFFFF",
            "headFont": "#FFFFFF",
            "noFont": "#FFFFFF"
        },
        {
            "background": "#F25822",
            "font": "#FFFFFF",
            "headFont": "#FFFFFF",
            "noFont": "#FFFFFF"
        },
        {
            "background": "#C4996C",
            "font": "#FFFFFF",
            "headFont": "#FFFFFF",
            "noFont": "#FFFFFF"
        }
    ],
    "queueDisplay": {
        "background": "url(/data/bg.png) top",
        "fsBackground": "#313031",
        "queue_group": [
            {
                "background": "transparent",
                "font": "#6B080B",
                "groupFont": "#6B080B",
                "headFont": "#000000",
                "noFont": "#6B080B"
            },
            {
                "background": "transparent",
                "font": "#00317D",
                "groupFont": "#00317D",
                "headFont": "#000000",
                "noFont": "#00317D"
            },
            {
                "background": "transparent",
                "font": "#396C05",
                "groupFont": "#396C05",
                "headFont": "#000000",
                "noFont": "#396C05"
            }
        ]
    },
    "buttons_default":
    {
        "background": "#7B9D4C",
        "font": "#FFFFFF"
    },
    "button_selected":
    {
        "background": "#FFFF00",
        "font": "#000000"
    },
    "numOfPplField":
    {
        "top": "#6D6E72",
        "bottom": "#ABACAF"
    },
    "numberButton":
    {
        "top": "#A0A191",
        "bottom": "#737462"
    },
    "background": "#76881D",
    "font": "#000000",
    "yourNumberField": {
        "textZh": "您的輪候號碼",
        "textEn": "Your Ticket Number",
        "sizeZh": 80,
        "sizeEn": 38
    },
    "waitingNumberField": {
        "font": "#FFFF00",
        "size": 160
    },
    "termsField": {
        "textZh": "輪候號碼超過5個或之後，需要重新登記，不便之處，敬請原諒",
        "textEn": "Re-registration is required if you missed your no by 5 tables\nSorry for any inconvenience caused",
        "sizeZh": 30,
        "sizeEn": 26
    },
    "instructions": {
        "textZh": "請輸入人數",
        "textEn": "Input No. of Pax",
        "sizeZh": 68,
        "sizeEn": 30 
    },
    "ticket": {
        "height": 1200,
        "ticketNoZh": "輪候號碼       6",
        "ticketNoEn": "Ticket number",
        "numOfPplZh": "人數$位123",
        "numOfPplEn": "No. of People: $",
        "alertZh": "客人必須待過半數人到齊後方可入座123123123",
        "alertEn": "Party will be seated when\r\nat least half members have\r\narrived",
        "expiredZh": "如所持票之號碼已過五個號碼, \n請重新輪候。",
        "expiredEn": "Number will still be\nvalid up till 5 places later,\nafter that please take another ticket.\n\nOur Fans page: www.facebook.com/newyorkfans"
    },
    "sufficientMode": {
        "textZh": "店內仍有充足座位，請直接入座。123",
        "textEn": "There are sufficient available tables, please come in and take a seat.123",
        "sizeZh": 15,
        "sizeEn": 60 
    }
}