{
    "menu_item_called": { "background": "#00FF00", "font": "#000000" },
    "queue_group": [ { "background": "#690400", "font": "#FFFFFF" }, { "background": "#313031", "font": "#FFFFFF" }, { "background": "#7B797B", "font": "#FFFFFF" }, { "background": "#D6C3AB", "font": "#FFFFFF" }, { "background": "#9D6034", "font": "#FFFFFF" } ],
    "queueDisplay": { "background": "#000000", "fsBackground": "#313031" },
    "buttons_default": { "background": "#990000", "font": "#FFFFFF" },
    "button_selected": { "background": "#FFFF00", "font": "#000000" },
    "numOfPplField": { "top": "#E6E6E6", "bottom": "#E6E6E6" },
    "numberButton": { "top": "#644E43", "bottom": "#644E43" },
    "background": "#990000",
    "font": "#4D4D4D"
}