<?xml version="1.0" encoding="utf-8"?>
<!-- Generator: Adobe Illustrator 16.0.3, SVG Export Plug-In . SVG Version: 6.00 Build 0)  -->
<!DOCTYPE svg PUBLIC "-//W3C//DTD SVG 1.1//EN" "http://www.w3.org/Graphics/SVG/1.1/DTD/svg11.dtd">
<svg id="svg-canvas" version="1.1" xmlns="http://www.w3.org/2000/svg" xmlns:xlink="http://www.w3.org/1999/xlink" x="0px" y="0px" width="100%"
	 height="100%" enable-background="new 0 0 1920 1080" xml:space="preserve">

<defs>
	
</defs>

<g id="bgGroup" display="none">
	
		<!-- <rect id="bg" x="0" y="0" display="inline" fill="#231815" stroke="#FFFFFF" stroke-width="0.9186" stroke-miterlimit="10" width="1920" height="1080"/> -->
</g>
<g id="floorGroup">
	<g id="floorBg">
	</g>
</g>
</svg>
