{
  "sql": {
    "userName": "weboncms",
    "password": "000000",
    "server": "127.0.0.1",
    "options": {
      "database": "dbBOBO",
      "instanceName": "sqlexpress",
      "useUTC": false,
      "textsize": "2147483647",
      "connectTimeout": 15000,
      "requestTimeout": 15000,
      "cancelTimeout": 5000,
      "packetSize": 4096,
      "tdsVersion": "7_4",
      "isolationLevel": 2,
      "encrypt": false,
      "cryptoCredentialsDetails": { },
      "useColumnNames": false,
      "connectionIsolationLevel": 2,
      "readOnlyIntent": false,
      "enableAnsiNullDefault": true
    }
  },
  "shopCode": "ThePantry001",
  "lang1": "001",
  "lang2": "002",
  "lang3": "003",
  "currentLang": "001",
  "billPrintTwice": false,
  "paymentPrintTwice": true,
  "takeAwayPrintTwice": true,
  "useKds": true,
  "webPort": 80,
  "socketPort": 5000,
  "deployPort": 8082,
  "lastOrderWarning": false,
  "lastOrderWarningTime": "01:30",
  "PrintVoidItem": false,
  "defaultPrinter": "re_1",
  "defaultQueuePrinter": "q1",
  "takeAwayMode": false,
  "printComboTitle": false,
  "takeawayPrinter": "re_2",
  "printZeroPriceItem": true,
  "printFoodFulllist": true,
  "sysDirs": {
    "octopusDir": "/payment/octopus"
  },
  "comboPriceOptionGroupCode": [
    "OP01"
  ],
  "pickupDisplay": {
    "ordering": -1,
    "removeNumberTime": "0 0,5,10,15,20,25,30,35,40,45,50,55 * * * *",
    "maxTimeKeep": "5"
  },
  "scheduleSwapMenuBoardTime": [
    {
      "time": "14:00",
      "swap": [
        {
          "from": "Main",
          "to": "Main1"
        },
        {
          "from": "Main1",
          "to": "Main"
        }
      ]
    },
    {
      "time": "18:00",
      "swap": [
        {
          "from": "Main",
          "to": "Main1"
        },
        {
          "from": "Main1",
          "to": "Main"
        }
      ]
    }
  ],
  "tills": {
    "1": {
      "foodFulllistprinter": "re_1"
    },
    "default": {
      "bill": "not",
      "cash": "not",
      "printer": "re_1",
      "takeaway": "not",
      "foodFulllistprinter": "re_1"
    },
    "re_1": {
      "bill": "yes",
      "cash": "yes",
      "printer": "re_1",
      "takeaway": "not",
      "duty": true,
      "foodFulllistprinter": "re_1",
      "takeawayBillReceipt": "re_3",
      "individualPayment": true,
      "multiPaymentPanel": true,
      "additionalMessageAll": true,
      "tableNo": [
        "306",
        "305"
      ]
    },
    "re_2": {
      "bill": "yes",
      "cash": "yes",
      "printer": "re_2",
      "duty": "not",
      "foodFulllistprinter": "re_2",
      "takeaway": "not",
      "tableNo": [
        "304",
        "303"
      ]
    },
    "ta_1": {
      "bill": "yes",
      "cash": "yes",
      "printer": "ta_1",
      "duty": "no",
      "foodFulllistprinter": "ta_1",
      "takeaway": "yes",
      "tableNo": [ ]
    }
  },
  "serverTime": "2016-09-29T09:20:43.743Z",
  "fireCode": "KMSG001",
  "fireDineInMode": false,
  "mifarePayment": true,
  "takeAwayCollected": true,
  "report": {
    "dailyReport": {
      "timeslot": false,
      "voidBill": false,
      "show100percent": false
    },
    "dailyAttendanceReport": {
      "excelFormat": "xlsx",
      "isWorkingHour": true,
      "workingHoursPeriod": "long",
      "isImage": false
    },
    "dailyBillDetailReport": {
      "printZeroPriceItem": true
    }
  },
  "alwaysPrintBill": true,
  "kdsAndPrinting": true,
  "takeOutAndDelivery": true,
  "discountPiority": [ "exact", "percentage" ]
}