<?xml version="1.0" encoding="utf-8"?>
<!-- Generator: Adobe Illustrator 16.0.3, SVG Export Plug-In . SVG Version: 6.00 Build 0)  -->
<!DOCTYPE svg PUBLIC "-//W3C//DTD SVG 1.1//EN" "http://www.w3.org/Graphics/SVG/1.1/DTD/svg11.dtd">
<svg version="1.1" id="Capa_1" xmlns="http://www.w3.org/2000/svg" xmlns:xlink="http://www.w3.org/1999/xlink" x="0px" y="0px"
	 width="32px" height="32px" viewBox="5.514 5.514 32 32" enable-background="new 5.514 5.514 32 32" xml:space="preserve">
<g>
	<path d="M34.889,30.691l-0.107,0.129c-3.539,4.245-8.251,6.584-13.268,6.584c-5.017,0-9.729-2.339-13.269-6.584l-0.106-0.129
		l0.025-0.164c0.683-4.458,3.012-8.038,6.557-10.085l0.252-0.146l0.201,0.211c1.674,1.757,3.925,2.723,6.339,2.723
		c2.414,0,4.666-0.968,6.339-2.723l0.201-0.211l0.252,0.146c3.545,2.047,5.873,5.627,6.558,10.085L34.889,30.691z M21.514,21.439
		c4.39,0,7.963-3.571,7.963-7.962s-3.573-7.963-7.963-7.963c-4.391,0-7.962,3.573-7.962,7.963
		C13.552,17.866,17.123,21.439,21.514,21.439z"/>
</g>
</svg>
