<svg version="1.1" id="圖層_1" xmlns="http://www.w3.org/2000/svg" xmlns:xlink="http://www.w3.org/1999/xlink" x="0px" y="0px"
         width="100px" height="100px" viewBox="0 0 100 100" enable-background="new 0 0 100 100" xml:space="preserve">
    <g id="pattern1">
        <line fill="none" stroke="#000000" stroke-width="7" x1="0" y1="50" x2="100" y2="50"/>
        <line fill="none" stroke="#000000" stroke-width="7" x1="50" y1="0" x2="50" y2="100"/>
    </g>
    </svg>